%YAML 1.1
%TAG !u! tag:unity3d.com,2011:
--- !u!1001 &4486840915678226948
PrefabInstance:
  m_ObjectHideFlags: 0
  serializedVersion: 2
  m_Modification:
    m_TransformParent: {fileID: 0}
    m_Modifications:
    - target: {fileID: 2168445788478178006, guid: 1fbccc13277ac137d99c0b60eabe8574, type: 3}
      propertyPath: m_RootOrder
      value: 0
      objectReference: {fileID: 0}
    - target: {fileID: 2168445788478178006, guid: 1fbccc13277ac137d99c0b60eabe8574, type: 3}
      propertyPath: m_LocalPosition.x
      value: 0
      objectReference: {fileID: 0}
    - target: {fileID: 2168445788478178006, guid: 1fbccc13277ac137d99c0b60eabe8574, type: 3}
      propertyPath: m_LocalPosition.y
      value: 0
      objectReference: {fileID: 0}
    - target: {fileID: 2168445788478178006, guid: 1fbccc13277ac137d99c0b60eabe8574, type: 3}
      propertyPath: m_LocalPosition.z
      value: 0
      objectReference: {fileID: 0}
    - target: {fileID: 2168445788478178006, guid: 1fbccc13277ac137d99c0b60eabe8574, type: 3}
      propertyPath: m_LocalRotation.w
      value: 1
      objectReference: {fileID: 0}
    - target: {fileID: 2168445788478178006, guid: 1fbccc13277ac137d99c0b60eabe8574, type: 3}
      propertyPath: m_LocalRotation.x
      value: 0
      objectReference: {fileID: 0}
    - target: {fileID: 2168445788478178006, guid: 1fbccc13277ac137d99c0b60eabe8574, type: 3}
      propertyPath: m_LocalRotation.y
      value: 0
      objectReference: {fileID: 0}
    - target: {fileID: 2168445788478178006, guid: 1fbccc13277ac137d99c0b60eabe8574, type: 3}
      propertyPath: m_LocalRotation.z
      value: 0
      objectReference: {fileID: 0}
    - target: {fileID: 2168445788478178006, guid: 1fbccc13277ac137d99c0b60eabe8574, type: 3}
      propertyPath: m_LocalEulerAnglesHint.x
      value: 0
      objectReference: {fileID: 0}
    - target: {fileID: 2168445788478178006, guid: 1fbccc13277ac137d99c0b60eabe8574, type: 3}
      propertyPath: m_LocalEulerAnglesHint.y
      value: 0
      objectReference: {fileID: 0}
    - target: {fileID: 2168445788478178006, guid: 1fbccc13277ac137d99c0b60eabe8574, type: 3}
      propertyPath: m_LocalEulerAnglesHint.z
      value: 0
      objectReference: {fileID: 0}
    - target: {fileID: 4296172030413089945, guid: 1fbccc13277ac137d99c0b60eabe8574, type: 3}
      propertyPath: m_Camera
      value: 
      objectReference: {fileID: 0}
    - target: {fileID: 5248414691639945437, guid: 1fbccc13277ac137d99c0b60eabe8574, type: 3}
      propertyPath: parTime
      value: 40
      objectReference: {fileID: 0}
    - target: {fileID: 9134359161745504269, guid: 1fbccc13277ac137d99c0b60eabe8574, type: 3}
      propertyPath: m_Name
      value: Level 24
      objectReference: {fileID: 0}
    m_RemovedComponents: []
  m_SourcePrefab: {fileID: 100100000, guid: 1fbccc13277ac137d99c0b60eabe8574, type: 3}
