%YAML 1.1
%TAG !u! tag:unity3d.com,2011:
--- !u!1001 &531964689154009097
PrefabInstance:
  m_ObjectHideFlags: 0
  serializedVersion: 2
  m_Modification:
    m_TransformParent: {fileID: 0}
    m_Modifications:
    - target: {fileID: -8679921383154817045, guid: d700f415d9f1c44499d5f5affb6f06ad, type: 3}
      propertyPath: m_RootOrder
      value: 0
      objectReference: {fileID: 0}
    - target: {fileID: -8679921383154817045, guid: d700f415d9f1c44499d5f5affb6f06ad, type: 3}
      propertyPath: m_LocalPosition.x
      value: -0.59371173
      objectReference: {fileID: 0}
    - target: {fileID: -8679921383154817045, guid: d700f415d9f1c44499d5f5affb6f06ad, type: 3}
      propertyPath: m_LocalPosition.y
      value: 6.9457507
      objectReference: {fileID: 0}
    - target: {fileID: -8679921383154817045, guid: d700f415d9f1c44499d5f5affb6f06ad, type: 3}
      propertyPath: m_LocalPosition.z
      value: 1.7603765
      objectReference: {fileID: 0}
    - target: {fileID: -8679921383154817045, guid: d700f415d9f1c44499d5f5affb6f06ad, type: 3}
      propertyPath: m_LocalRotation.w
      value: 0.79550344
      objectReference: {fileID: 0}
    - target: {fileID: -8679921383154817045, guid: d700f415d9f1c44499d5f5affb6f06ad, type: 3}
      propertyPath: m_LocalRotation.x
      value: 0.59510314
      objectReference: {fileID: 0}
    - target: {fileID: -8679921383154817045, guid: d700f415d9f1c44499d5f5affb6f06ad, type: 3}
      propertyPath: m_LocalRotation.y
      value: 0.10369165
      objectReference: {fileID: 0}
    - target: {fileID: -8679921383154817045, guid: d700f415d9f1c44499d5f5affb6f06ad, type: 3}
      propertyPath: m_LocalRotation.z
      value: 0.047692508
      objectReference: {fileID: 0}
    - target: {fileID: -8679921383154817045, guid: d700f415d9f1c44499d5f5affb6f06ad, type: 3}
      propertyPath: m_LocalEulerAnglesHint.x
      value: 0
      objectReference: {fileID: 0}
    - target: {fileID: -8679921383154817045, guid: d700f415d9f1c44499d5f5affb6f06ad, type: 3}
      propertyPath: m_LocalEulerAnglesHint.y
      value: 0
      objectReference: {fileID: 0}
    - target: {fileID: -8679921383154817045, guid: d700f415d9f1c44499d5f5affb6f06ad, type: 3}
      propertyPath: m_LocalEulerAnglesHint.z
      value: 0
      objectReference: {fileID: 0}
    - target: {fileID: 919132149155446097, guid: d700f415d9f1c44499d5f5affb6f06ad, type: 3}
      propertyPath: m_Name
      value: Plant Top
      objectReference: {fileID: 0}
    - target: {fileID: 919132149155446097, guid: d700f415d9f1c44499d5f5affb6f06ad, type: 3}
      propertyPath: m_Layer
      value: 7
      objectReference: {fileID: 0}
    - target: {fileID: 919132149155446097, guid: d700f415d9f1c44499d5f5affb6f06ad, type: 3}
      propertyPath: m_StaticEditorFlags
      value: 2147483647
      objectReference: {fileID: 0}
    m_RemovedComponents: []
  m_SourcePrefab: {fileID: 100100000, guid: d700f415d9f1c44499d5f5affb6f06ad, type: 3}
--- !u!1 &837813296636515672 stripped
GameObject:
  m_CorrespondingSourceObject: {fileID: 919132149155446097, guid: d700f415d9f1c44499d5f5affb6f06ad, type: 3}
  m_PrefabInstance: {fileID: 531964689154009097}
  m_PrefabAsset: {fileID: 0}
--- !u!64 &821209494
MeshCollider:
  m_ObjectHideFlags: 0
  m_CorrespondingSourceObject: {fileID: 0}
  m_PrefabInstance: {fileID: 0}
  m_PrefabAsset: {fileID: 0}
  m_GameObject: {fileID: 837813296636515672}
  m_Material: {fileID: 0}
  m_IsTrigger: 0
  m_Enabled: 1
  serializedVersion: 4
  m_Convex: 1
  m_CookingOptions: 30
  m_Mesh: {fileID: -44743435819338808, guid: d700f415d9f1c44499d5f5affb6f06ad, type: 3}
