%YAML 1.1
%TAG !u! tag:unity3d.com,2011:
--- !u!1001 &5200676401053622343
PrefabInstance:
  m_ObjectHideFlags: 0
  serializedVersion: 2
  m_Modification:
    m_TransformParent: {fileID: 0}
    m_Modifications:
    - target: {fileID: -8679921383154817045, guid: e4733c828e89d9540b70176a7148aff2, type: 3}
      propertyPath: m_RootOrder
      value: 0
      objectReference: {fileID: 0}
    - target: {fileID: -8679921383154817045, guid: e4733c828e89d9540b70176a7148aff2, type: 3}
      propertyPath: m_LocalPosition.x
      value: 7.5732775
      objectReference: {fileID: 0}
    - target: {fileID: -8679921383154817045, guid: e4733c828e89d9540b70176a7148aff2, type: 3}
      propertyPath: m_LocalPosition.y
      value: 1.7073106
      objectReference: {fileID: 0}
    - target: {fileID: -8679921383154817045, guid: e4733c828e89d9540b70176a7148aff2, type: 3}
      propertyPath: m_LocalPosition.z
      value: -7.335391
      objectReference: {fileID: 0}
    - target: {fileID: -8679921383154817045, guid: e4733c828e89d9540b70176a7148aff2, type: 3}
      propertyPath: m_LocalRotation.w
      value: 0.7071067
      objectReference: {fileID: 0}
    - target: {fileID: -8679921383154817045, guid: e4733c828e89d9540b70176a7148aff2, type: 3}
      propertyPath: m_LocalRotation.x
      value: 0.7071068
      objectReference: {fileID: 0}
    - target: {fileID: -8679921383154817045, guid: e4733c828e89d9540b70176a7148aff2, type: 3}
      propertyPath: m_LocalRotation.y
      value: 0
      objectReference: {fileID: 0}
    - target: {fileID: -8679921383154817045, guid: e4733c828e89d9540b70176a7148aff2, type: 3}
      propertyPath: m_LocalRotation.z
      value: -0
      objectReference: {fileID: 0}
    - target: {fileID: -8679921383154817045, guid: e4733c828e89d9540b70176a7148aff2, type: 3}
      propertyPath: m_LocalEulerAnglesHint.x
      value: 0
      objectReference: {fileID: 0}
    - target: {fileID: -8679921383154817045, guid: e4733c828e89d9540b70176a7148aff2, type: 3}
      propertyPath: m_LocalEulerAnglesHint.y
      value: 0
      objectReference: {fileID: 0}
    - target: {fileID: -8679921383154817045, guid: e4733c828e89d9540b70176a7148aff2, type: 3}
      propertyPath: m_LocalEulerAnglesHint.z
      value: 0
      objectReference: {fileID: 0}
    - target: {fileID: 919132149155446097, guid: e4733c828e89d9540b70176a7148aff2, type: 3}
      propertyPath: m_Name
      value: Rock 5
      objectReference: {fileID: 0}
    - target: {fileID: 919132149155446097, guid: e4733c828e89d9540b70176a7148aff2, type: 3}
      propertyPath: m_Layer
      value: 7
      objectReference: {fileID: 0}
    - target: {fileID: 919132149155446097, guid: e4733c828e89d9540b70176a7148aff2, type: 3}
      propertyPath: m_StaticEditorFlags
      value: 2147483647
      objectReference: {fileID: 0}
    m_RemovedComponents: []
  m_SourcePrefab: {fileID: 100100000, guid: e4733c828e89d9540b70176a7148aff2, type: 3}
--- !u!1 &4966883730825403670 stripped
GameObject:
  m_CorrespondingSourceObject: {fileID: 919132149155446097, guid: e4733c828e89d9540b70176a7148aff2, type: 3}
  m_PrefabInstance: {fileID: 5200676401053622343}
  m_PrefabAsset: {fileID: 0}
--- !u!64 &912302887
MeshCollider:
  m_ObjectHideFlags: 0
  m_CorrespondingSourceObject: {fileID: 0}
  m_PrefabInstance: {fileID: 0}
  m_PrefabAsset: {fileID: 0}
  m_GameObject: {fileID: 4966883730825403670}
  m_Material: {fileID: 0}
  m_IsTrigger: 0
  m_Enabled: 1
  serializedVersion: 4
  m_Convex: 1
  m_CookingOptions: 30
  m_Mesh: {fileID: -8419711722296123526, guid: e4733c828e89d9540b70176a7148aff2, type: 3}
