%YAML 1.1
%TAG !u! tag:unity3d.com,2011:
--- !u!1001 &4793470947631541065
PrefabInstance:
  m_ObjectHideFlags: 0
  serializedVersion: 2
  m_Modification:
    m_TransformParent: {fileID: 0}
    m_Modifications:
    - target: {fileID: -8679921383154817045, guid: f3d830a1cb01e1c099760e5d922a90a9, type: 3}
      propertyPath: m_RootOrder
      value: 0
      objectReference: {fileID: 0}
    - target: {fileID: -8679921383154817045, guid: f3d830a1cb01e1c099760e5d922a90a9, type: 3}
      propertyPath: m_LocalPosition.x
      value: 37.893738
      objectReference: {fileID: 0}
    - target: {fileID: -8679921383154817045, guid: f3d830a1cb01e1c099760e5d922a90a9, type: 3}
      propertyPath: m_LocalPosition.y
      value: 24.093021
      objectReference: {fileID: 0}
    - target: {fileID: -8679921383154817045, guid: f3d830a1cb01e1c099760e5d922a90a9, type: 3}
      propertyPath: m_LocalPosition.z
      value: 22.273485
      objectReference: {fileID: 0}
    - target: {fileID: -8679921383154817045, guid: f3d830a1cb01e1c099760e5d922a90a9, type: 3}
      propertyPath: m_LocalRotation.w
      value: 0.7071067
      objectReference: {fileID: 0}
    - target: {fileID: -8679921383154817045, guid: f3d830a1cb01e1c099760e5d922a90a9, type: 3}
      propertyPath: m_LocalRotation.x
      value: 0.7071068
      objectReference: {fileID: 0}
    - target: {fileID: -8679921383154817045, guid: f3d830a1cb01e1c099760e5d922a90a9, type: 3}
      propertyPath: m_LocalRotation.y
      value: 0
      objectReference: {fileID: 0}
    - target: {fileID: -8679921383154817045, guid: f3d830a1cb01e1c099760e5d922a90a9, type: 3}
      propertyPath: m_LocalRotation.z
      value: -0
      objectReference: {fileID: 0}
    - target: {fileID: -8679921383154817045, guid: f3d830a1cb01e1c099760e5d922a90a9, type: 3}
      propertyPath: m_LocalEulerAnglesHint.x
      value: 0
      objectReference: {fileID: 0}
    - target: {fileID: -8679921383154817045, guid: f3d830a1cb01e1c099760e5d922a90a9, type: 3}
      propertyPath: m_LocalEulerAnglesHint.y
      value: 0
      objectReference: {fileID: 0}
    - target: {fileID: -8679921383154817045, guid: f3d830a1cb01e1c099760e5d922a90a9, type: 3}
      propertyPath: m_LocalEulerAnglesHint.z
      value: 0
      objectReference: {fileID: 0}
    - target: {fileID: 919132149155446097, guid: f3d830a1cb01e1c099760e5d922a90a9, type: 3}
      propertyPath: m_Name
      value: Stalactite 1
      objectReference: {fileID: 0}
    - target: {fileID: 919132149155446097, guid: f3d830a1cb01e1c099760e5d922a90a9, type: 3}
      propertyPath: m_Layer
      value: 7
      objectReference: {fileID: 0}
    - target: {fileID: 919132149155446097, guid: f3d830a1cb01e1c099760e5d922a90a9, type: 3}
      propertyPath: m_StaticEditorFlags
      value: 4294967295
      objectReference: {fileID: 0}
    m_RemovedComponents: []
  m_SourcePrefab: {fileID: 100100000, guid: f3d830a1cb01e1c099760e5d922a90a9, type: 3}
--- !u!1 &5639841265550267928 stripped
GameObject:
  m_CorrespondingSourceObject: {fileID: 919132149155446097, guid: f3d830a1cb01e1c099760e5d922a90a9, type: 3}
  m_PrefabInstance: {fileID: 4793470947631541065}
  m_PrefabAsset: {fileID: 0}
--- !u!64 &-5735774556830515092
MeshCollider:
  m_ObjectHideFlags: 0
  m_CorrespondingSourceObject: {fileID: 0}
  m_PrefabInstance: {fileID: 0}
  m_PrefabAsset: {fileID: 0}
  m_GameObject: {fileID: 5639841265550267928}
  m_Material: {fileID: 0}
  m_IsTrigger: 0
  m_Enabled: 1
  serializedVersion: 4
  m_Convex: 1
  m_CookingOptions: 30
  m_Mesh: {fileID: -4236712798143921760, guid: f3d830a1cb01e1c099760e5d922a90a9, type: 3}
