%YAML 1.1
%TAG !u! tag:unity3d.com,2011:
--- !u!114 &4135905300866675815
MonoBehaviour:
  m_ObjectHideFlags: 0
  m_CorrespondingSourceObject: {fileID: 0}
  m_PrefabInstance: {fileID: 0}
  m_PrefabAsset: {fileID: 0}
  m_GameObject: {fileID: 7592965793039596251}
  m_Enabled: 1
  m_EditorHideFlags: 0
  m_Script: {fileID: 11500000, guid: 0a70717648e50fc45838cfa4b1542275, type: 3}
  m_Name: 
  m_EditorClassIdentifier: 
  trs: {fileID: 82375462417579529}
  meshRenderer: {fileID: 4248047680372340989}
  neighbors: []
  supportingTiles: []
  isSupportingTile: 0
  tileParent: {fileID: 0}
  collider: {fileID: 4612851874989921626}
--- !u!1001 &1017622508286174204
PrefabInstance:
  m_ObjectHideFlags: 0
  serializedVersion: 2
  m_Modification:
    m_TransformParent: {fileID: 0}
    m_Modifications:
    - target: {fileID: 1097746140504088053, guid: 4fb6fbb20e22c03b9997215fca7e749d, type: 3}
      propertyPath: m_RootOrder
      value: 0
      objectReference: {fileID: 0}
    - target: {fileID: 1097746140504088053, guid: 4fb6fbb20e22c03b9997215fca7e749d, type: 3}
      propertyPath: m_LocalPosition.x
      value: 120
      objectReference: {fileID: 0}
    - target: {fileID: 1097746140504088053, guid: 4fb6fbb20e22c03b9997215fca7e749d, type: 3}
      propertyPath: m_LocalPosition.y
      value: 1
      objectReference: {fileID: 0}
    - target: {fileID: 1097746140504088053, guid: 4fb6fbb20e22c03b9997215fca7e749d, type: 3}
      propertyPath: m_LocalPosition.z
      value: 3
      objectReference: {fileID: 0}
    - target: {fileID: 1097746140504088053, guid: 4fb6fbb20e22c03b9997215fca7e749d, type: 3}
      propertyPath: m_LocalRotation.w
      value: 1
      objectReference: {fileID: 0}
    - target: {fileID: 1097746140504088053, guid: 4fb6fbb20e22c03b9997215fca7e749d, type: 3}
      propertyPath: m_LocalRotation.x
      value: -0
      objectReference: {fileID: 0}
    - target: {fileID: 1097746140504088053, guid: 4fb6fbb20e22c03b9997215fca7e749d, type: 3}
      propertyPath: m_LocalRotation.y
      value: -0
      objectReference: {fileID: 0}
    - target: {fileID: 1097746140504088053, guid: 4fb6fbb20e22c03b9997215fca7e749d, type: 3}
      propertyPath: m_LocalRotation.z
      value: -0
      objectReference: {fileID: 0}
    - target: {fileID: 1097746140504088053, guid: 4fb6fbb20e22c03b9997215fca7e749d, type: 3}
      propertyPath: m_LocalEulerAnglesHint.x
      value: 0
      objectReference: {fileID: 0}
    - target: {fileID: 1097746140504088053, guid: 4fb6fbb20e22c03b9997215fca7e749d, type: 3}
      propertyPath: m_LocalEulerAnglesHint.y
      value: 0
      objectReference: {fileID: 0}
    - target: {fileID: 1097746140504088053, guid: 4fb6fbb20e22c03b9997215fca7e749d, type: 3}
      propertyPath: m_LocalEulerAnglesHint.z
      value: 0
      objectReference: {fileID: 0}
    - target: {fileID: 1616256648988468688, guid: 4fb6fbb20e22c03b9997215fca7e749d, type: 3}
      propertyPath: m_Mesh
      value: 
      objectReference: {fileID: 10202, guid: 0000000000000000e000000000000000, type: 0}
    - target: {fileID: 3813223544051276545, guid: 4fb6fbb20e22c03b9997215fca7e749d, type: 3}
      propertyPath: m_Materials.Array.data[0]
      value: 
      objectReference: {fileID: 2100000, guid: f069c418589c4c14e8bc8b7412048921, type: 2}
    - target: {fileID: 7440210945223678247, guid: 4fb6fbb20e22c03b9997215fca7e749d, type: 3}
      propertyPath: m_Name
      value: Checkpoint
      objectReference: {fileID: 0}
    - target: {fileID: 7440210945223678247, guid: 4fb6fbb20e22c03b9997215fca7e749d, type: 3}
      propertyPath: m_Layer
      value: 9
      objectReference: {fileID: 0}
    m_RemovedComponents:
    - {fileID: 1829149984968769263, guid: 4fb6fbb20e22c03b9997215fca7e749d, type: 3}
  m_SourcePrefab: {fileID: 100100000, guid: 4fb6fbb20e22c03b9997215fca7e749d, type: 3}
--- !u!1 &7592965793039596251 stripped
GameObject:
  m_CorrespondingSourceObject: {fileID: 7440210945223678247, guid: 4fb6fbb20e22c03b9997215fca7e749d, type: 3}
  m_PrefabInstance: {fileID: 1017622508286174204}
  m_PrefabAsset: {fileID: 0}
--- !u!4 &82375462417579529 stripped
Transform:
  m_CorrespondingSourceObject: {fileID: 1097746140504088053, guid: 4fb6fbb20e22c03b9997215fca7e749d, type: 3}
  m_PrefabInstance: {fileID: 1017622508286174204}
  m_PrefabAsset: {fileID: 0}
--- !u!23 &4248047680372340989 stripped
MeshRenderer:
  m_CorrespondingSourceObject: {fileID: 3813223544051276545, guid: 4fb6fbb20e22c03b9997215fca7e749d, type: 3}
  m_PrefabInstance: {fileID: 1017622508286174204}
  m_PrefabAsset: {fileID: 0}
--- !u!65 &4612851874989921626 stripped
BoxCollider:
  m_CorrespondingSourceObject: {fileID: 5628221973568042662, guid: 4fb6fbb20e22c03b9997215fca7e749d, type: 3}
  m_PrefabInstance: {fileID: 1017622508286174204}
  m_PrefabAsset: {fileID: 0}
